{
	"name": "aurorafw",
	"description": "A Powerful General Purpose Framework",
	"copyright": "Copyright © 2018-2019, Aurora Free Open Source Software",
	"license": "LGPL-3.0",
	"authors": [
		"Luís Ferreira",
		"Filipe Laíns",
		"Ricardo Subtil"
	],
	"targetType": "library",
	"targetPath": ".out/bin",
	"targetName": "aurorafw",
	"sourcePaths": [ "src/source" ],
	"importPaths": [ "src/source" ],
	"dependencies": {
		":math": "*",
		":core": "*",
		":cli": "*",
		":audio": "*",
		":graphics": "*",
		":image": "*",
		":gui": "*",
		":net": "*",
		":metadata": "*",
		":stdx": "*",
		":unit": "*",
		":entity": "*"
	},
	"subPackages": [
		"src/core",
		"src/cli",
		"src/math",
		"src/audio",
		"src/image",
		"src/graphics",
		"src/gui",
		"src/net",
		"src/metadata",
		"src/stdx",
		"src/unit",
		"src/entity"
	]
}
